R exercise 1: Know Your Data
…
## The following objects are masked from 'package:Hmisc':
## 
##     src, summarize

## The following objects are masked from 'package:stats':
## 
##     filter, lag

## The following objects are masked from 'package:base':
## 
##     intersect, setdiff, setequal, union

group_by(data, Country, Status) %>% summarise(nObs=n(), mA7=median(`Life expectancy`))

## # A tibble: 193 x 4
## # Groups:   Country [193]
##    Country             Status      nObs   mA7
##    <chr>               <chr>      <int> <dbl>
##  1 Afghanistan         Developing    16  57.8
##  2 Albania             Developing    16  75.6
##  3 Algeria             Developing    16  73.9
##  4 Angola              Developing    16  48.4
##  5 Antigua and Barbuda Developing    16  75.1
##  6 Argentina           Developing    16  75.3
##  7 Armenia             Developing    16  73.2
##  8 Australia           Developed     16  81.8
##  9 Austria             Developed     16  81.0
## 10 Azerbaijan          Developing    16  71.4
## # ... with 183 more rows
…
