R exercise 2: Data Preprocessing
…
##  chr [1:2938] "Developing" "Developing" "Developing" "Developing" ...

data$Status = as.factor(data$Status)
class(data$Status)

## [1] "factor"

dealing with unknown values: remove observations or columns with many NAs

suppressPackageStartupMessages(require(dplyr))
missing.value.rows <- filter(data, !complete.cases(data)) 
missing.value.rows

## # A tibble: 1,289 x 22
##    Country  Year Status `Life expectanc~ `Adult Mortalit~ `infant deaths`
##    <chr>   <dbl> <fct>             <dbl>            <dbl>           <dbl>
##  1 Algeria  2015 Devel~             75.6               19              21
##  2 Algeria  2003 Devel~             71.7              146              20
##  3 Algeria  2002 Devel~             71.6              145              20
##  4 Algeria  2001 Devel~             71.4              145              20
##  5 Algeria  2000 Devel~             71.3              145              21
##  6 Angola   2015 Devel~             52.4              335              66
##  7 Angola   2006 Devel~             47.7              381              90
##  8 Angola   2005 Devel~             47.4              382              92
##  9 Angola   2004 Devel~             47.1              386              94
## 10 Angola   2003 Devel~             46.8              388              95
## # ... with 1,279 more rows, and 16 more variables: Alcohol <dbl>,
## #   `percentage expenditure` <dbl>, `Hepatitis B` <dbl>, Measles <dbl>,
## #   BMI <dbl>, `under-five deaths` <dbl>, Polio <dbl>, `Total
## #   expenditure` <dbl>, Diphtheria <dbl>, `HIV/AIDS` <dbl>, GDP <dbl>,
## #   Population <dbl>, `thinness 1-19 years` <dbl>, `thinness 5-9
## #   years` <dbl>, `Income composition of resources` <dbl>, Schooling <dbl>
…
